Analyzing the programming languages used in R packages - Philippe Massicotte
…
pkg

Languages used in R packages

There are a total of 108 programming languages used in CRAN R packages. The following graph shows the top 16 most used (determined by the number of lines).

languages <- pkg %>% 
  count(language, sort = TRUE, name = "n_package")

languages
#> # A tibble: 108 x 2
#>    language     n_package
#>    <chr>            <int>
#>  1 R                14689
#>  2 Markdown          5710
#>  3 HTML              3680
#>  4 C                 2162
#>  5 C++               2041
#>  6 C/C++ Header      1867
#>  7 Bourne Shell       500
#>  8 CSS                459
#>  9 TeX                401
#> 10 JavaScript         370
#> # ... with 98 more rows
…
