…
bob_ross <- bob_ross %>%
  select(-contains("frame")) %>%
  pivot_longer(
    -c(episode, title),
    names_to = "keyword",
    values_to = "is_present"
  ) %>%
  separate(episode, into = c("season", "episode"), sep = "E") %>%
  mutate(season = str_extract(season, "[:digit:]+")) %>%
  mutate_at(vars(season, episode), parse_number) %>%
  mutate(keyword = str_replace(keyword, "_", " ")) %>%
  mutate(keyword = str_to_title(keyword))

bob_ross
#> # A tibble: 20,553 x 5
#>    season episode title                     keyword         is_present
#>     <dbl>   <dbl> <chr>                     <chr>                <dbl>
#>  1      1       1 "\"A Walk In The Woods\"" Aurora Borealis          0
#>  2      1       1 "\"A Walk In The Woods\"" Barn                     0
#>  3      1       1 "\"A Walk In The Woods\"" Beach                    0
#>  4      1       1 "\"A Walk In The Woods\"" Boat                     0
#>  5      1       1 "\"A Walk In The Woods\"" Bridge                   0
#>  6      1       1 "\"A Walk In The Woods\"" Building                 0
#>  7      1       1 "\"A Walk In The Woods\"" Bushes                   1
#>  8      1       1 "\"A Walk In The Woods\"" Cabin                    0
#>  9      1       1 "\"A Walk In The Woods\"" Cactus                   0
#> 10      1       1 "\"A Walk In The Woods\"" Cirrus                   0
#> # ... with 20,543 more rows
…
