…
# df %>%
#   group_by(eviction_id) %>%
#   # filter(value) %>%
#   ungroup() %>%
#   count(eviction_id, sort = T)
#
df %>%
  count(neighborhoods_analysis_boundaries, sort = TRUE)
#> # A tibble: 42 x 2
#>    neighborhoods_analysis_boundaries     n
#>    <chr>                             <int>
#>  1 Mission                            4620
#>  2 Tenderloin                         2725
#>  3 Sunset/Parkside                    2664
#>  4 Outer Richmond                     2144
#>  5 Castro/Upper Market                1866
#>  6 Lakeshore                          1785
#>  7 Hayes Valley                       1550
#>  8 South of Market                    1486
#>  9 Nob Hill                           1458
#> 10 Haight Ashbury                     1340
#> # ... with 32 more rows
…
