…
This week, the TidyTuesday challenge is about Roman emperors. The dataset provides the name, birth, death and reign information for 68 Roman emperors.

The data

emperors <-
  readr::read_csv(
    "https://raw.githubusercontent.com/rfordatascience/tidytuesday/master/data/2019/2019-08-13/emperors.csv"
  )

emperors
#> # A tibble: 68 x 16
#>    index name  name_full birth      death      birth_cty birth_prv rise 
#>    <dbl> <chr> <chr>     <date>     <date>     <chr>     <chr>     <chr>
#>  1     1 Augu~ IMPERATO~ 0062-09-23 0014-08-19 Rome      Italia    Birt~
#>  2     2 Tibe~ TIBERIVS~ 0041-11-16 0037-03-16 Rome      Italia    Birt~
#>  3     3 Cali~ GAIVS IV~ 0012-08-31 0041-01-24 Antitum   Italia    Birt~
#>  4     4 Clau~ TIBERIVS~ 0009-08-01 0054-10-13 Lugdunum  Gallia L~ Birt~
#>  5     5 Nero  NERO CLA~ 0037-12-15 0068-06-09 Antitum   Italia    Birt~
#>  6     6 Galba SERVIVS ~ 0002-12-24 0069-01-15 Terracina Italia    Seiz~
#>  7     7 Otho  MARCVS S~ 0032-04-28 0069-04-16 Terentin~ Italia    Appo~
#>  8     8 Vite~ AVLVS VI~ 0015-09-24 0069-12-20 Rome      Italia    Seiz~
#>  9     9 Vesp~ TITVS FL~ 0009-11-17 0079-06-24 Falacrine Italia    Seiz~
#> 10    10 Titus TITVS FL~ 0039-12-30 0081-09-13 Rome      Italia    Birt~
#> # ... with 58 more rows, and 8 more variables: reign_start <date>,
#> #   reign_end <date>, cause <chr>, killer <chr>, dynasty <chr>, era <chr>,
#> #   notes <chr>, verif_who <chr>
…
