Analysis of speaker genders at the 2018 ArcticNet Annual Scientific Meeting - Another R blog
…
  # Use a simple regular expression to extract two consequtive upperletter
  # words. This could be better.
  # str_match_all(dat[[21]], "\\W+([A-Z\\s\\-]{1,})\\r\\n")
  ## Remove the \r if building on Linux
  str_match_all(x, "\\W+([[:upper:]]{3,}\\W+[[:upper:]]{3,})\\r\\n")[[1]][, 2]
  
}) %>%
  unlist() %>%
  tibble(full_name = .) %>%
  filter(!str_detect(full_name, "SESSION")) %>%
  separate(full_name, into = c("first_name", "last_name"))

If I did things correctly, there were 386 speakers at the conference.

## # A tibble: 386 x 2
##    first_name last_name
##    <chr>      <chr>    
##  1 LOUIS      TETU     
##  2 MICHAEL    DELAUNAY 
##  3 MICHAEL    ROSS     
##  4 DESAI      SHAN     
##  5 CATHERINE  BURKE    
##  6 BRIAN      MOORMAN  
##  7 ACHIM      ROTH     
##  8 MATTHEW    ASPLIN   
##  9 DUSTIN     WHALEN   
## 10 ALESSIA    GUZZI    
## # … with 376 more rows
…
library(gender)

res <- res %>% 
  nest(c(first_name, last_name)) %>%
  mutate(gender = map(data, ~ gender(.$first_name))) %>%
  unnest(gender) %>%
  mutate(gender = str_to_title(gender))

## Warning: All elements of `...` must be named.
## Did you want `data = c(first_name, last_name)`?

res

## # A tibble: 347 x 7
##         data name  proportion_male proportion_fema… gender year_min
##    <list<df> <chr>           <dbl>            <dbl> <chr>     <dbl>
##  1 [386 × 2] ADRI…          0.927            0.0732 Male       1932
##  2 [386 × 2] AGAT…          0                1      Female     1932
##  3 [386 × 2] ALEJ…          0.992            0.0075 Male       1932
##  4 [386 × 2] ALES…          0                1      Female     1932
##  5 [386 × 2] ALEX…          0.992            0.0079 Male       1932
##  6 [386 × 2] ALEX…          0.0037           0.996  Female     1932
##  7 [386 × 2] ALEX…          0.0037           0.996  Female     1932
##  8 [386 × 2] ALEX…          0.964            0.0355 Male       1932
##  9 [386 × 2] ALEX…          0.145            0.855  Female     1932
## 10 [386 × 2] ALIS…          0.0045           0.996  Female     1932
## # … with 337 more rows, and 1 more variable: year_max <dbl>
…
