Trying the new R vroom Package - Philippe Massicotte
…
## Parsed with column specification:
## cols(
##   Duration = col_double(),
##   `Start date` = col_datetime(format = ""),
##   `End date` = col_datetime(format = ""),
##   `Start station number` = col_double(),
##   `Start station` = col_character(),
##   `End station number` = col_double(),
##   `End station` = col_character(),
##   `Bike number` = col_character(),
##   `Member type` = col_character()
## )

## # A tibble: 168,590 x 9
##    Duration `Start date`        `End date`          `Start station …
##       <dbl> <dttm>              <dttm>                         <dbl>
##  1      552 2018-01-01 00:05:06 2018-01-01 00:14:18            31104
##  2     1282 2018-01-01 00:14:30 2018-01-01 00:35:53            31321
##  3     1265 2018-01-01 00:14:53 2018-01-01 00:35:58            31321
##  4      578 2018-01-01 00:15:31 2018-01-01 00:25:09            31406
##  5      372 2018-01-01 00:18:02 2018-01-01 00:24:15            31618
##  6      369 2018-01-01 00:18:07 2018-01-01 00:24:17            31618
##  7      486 2018-01-01 00:19:07 2018-01-01 00:27:14            31042
##  8     1615 2018-01-01 00:21:55 2018-01-01 00:48:50            31042
##  9     1598 2018-01-01 00:22:02 2018-01-01 00:48:41            31042
## 10      483 2018-01-01 00:22:10 2018-01-01 00:30:14            31115
## # … with 168,580 more rows, and 5 more variables: `Start station` <chr>, `End
## #   station number` <dbl>, `End station` <chr>, `Bike number` <chr>, `Member
## #   type` <chr>
…
df <- vroom(files, .name_repair = ~janitor::make_clean_names(.))

## Observations: 1,685,900
## Variables: 9
## chr  [4]: Start station, End station, Bike number, Member type
## dbl  [3]: Duration, Start station number, End station number
## dttm [2]: Start date, End date
## 
## Call `spec()` for a copy-pastable column specification
## Specify the column types with `col_types` to quiet this message

df

## # A tibble: 1,685,900 x 9
##    duration start_date          end_date            start_station_n…
##       <dbl> <dttm>              <dttm>                         <dbl>
##  1      552 2018-01-01 00:05:06 2018-01-01 00:14:18            31104
##  2     1282 2018-01-01 00:14:30 2018-01-01 00:35:53            31321
##  3     1265 2018-01-01 00:14:53 2018-01-01 00:35:58            31321
##  4      578 2018-01-01 00:15:31 2018-01-01 00:25:09            31406
##  5      372 2018-01-01 00:18:02 2018-01-01 00:24:15            31618
##  6      369 2018-01-01 00:18:07 2018-01-01 00:24:17            31618
##  7      486 2018-01-01 00:19:07 2018-01-01 00:27:14            31042
##  8     1615 2018-01-01 00:21:55 2018-01-01 00:48:50            31042
##  9     1598 2018-01-01 00:22:02 2018-01-01 00:48:41            31042
## 10      483 2018-01-01 00:22:10 2018-01-01 00:30:14            31115
## # … with 1,685,890 more rows, and 5 more variables: start_station <chr>,
## #   end_station_number <dbl>, end_station <chr>, bike_number <chr>,
## #   member_type <chr>
…
